<svg width="15" height="10" viewBox="0 0 15 10" fill="none" xmlns="http://www.w3.org/2000/svg">
<path d="M7.5708 9.12646C7.80811 9.12646 8.02783 9.021 8.19482 8.84521L14.5933 2.29736C14.7515 2.13916 14.8394 1.93701 14.8394 1.7085C14.8394 1.23389 14.479 0.873535 14.0044 0.873535C13.7847 0.873535 13.5649 0.961426 13.4067 1.11963L7.5708 7.09619L1.72607 1.11963C1.56787 0.961426 1.36572 0.873535 1.12842 0.873535C0.662598 0.873535 0.293457 1.23389 0.293457 1.7085C0.293457 1.93701 0.381348 2.13916 0.539551 2.29736L6.93799 8.84521C7.12256 9.02979 7.32471 9.12646 7.5708 9.12646Z" fill="black"/>
</svg>
