<svg width="26" height="27" viewBox="0 0 26 27" fill="none" xmlns="http://www.w3.org/2000/svg">
<g clip-path="url(#clip0)">
<path d="M19.0879 0.833008H7.62248C3.89095 0.833008 0.855225 3.96666 0.855225 7.81857V19.654C0.855225 23.5057 3.89095 26.6394 7.62248 26.6394H19.0881C22.8194 26.6394 25.8552 23.5057 25.8552 19.654V7.81857C25.8552 3.96666 22.8194 0.833008 19.0879 0.833008V0.833008ZM13.3552 20.7924C9.58591 20.7924 6.51947 17.6271 6.51947 13.7362C6.51947 9.84532 9.58591 6.67997 13.3552 6.67997C17.1245 6.67997 20.1909 9.84532 20.1909 13.7362C20.1909 17.6271 17.1245 20.7924 13.3552 20.7924ZM20.3544 8.34406C19.2405 8.34406 18.3345 7.40884 18.3345 6.25902C18.3345 5.1092 19.2405 4.17379 20.3544 4.17379C21.4683 4.17379 22.3745 5.1092 22.3745 6.25902C22.3745 7.40884 21.4683 8.34406 20.3544 8.34406Z" fill="#AD1E42"/>
<path d="M13.3552 8.19238C10.3942 8.19238 7.98505 10.6791 7.98505 13.7357C7.98505 16.7922 10.3942 19.2791 13.3552 19.2791C16.3163 19.2791 18.7253 16.7922 18.7253 13.7357C18.7253 10.6791 16.3163 8.19238 13.3552 8.19238Z" fill="#AD1E42"/>
<path d="M20.3544 5.68652C20.0488 5.68652 19.8001 5.94326 19.8001 6.25868C19.8001 6.57409 20.0488 6.83083 20.3544 6.83083C20.6601 6.83083 20.9088 6.57429 20.9088 6.25868C20.9088 5.94307 20.6601 5.68652 20.3544 5.68652Z" fill="#AD1E42"/>
</g>
<defs>
<clipPath id="clip0">
<rect width="25" height="25.8064" fill="white" transform="translate(0.855225 0.833008)"/>
</clipPath>
</defs>
</svg>
