<svg width="26" height="26" viewBox="0 0 26 26" fill="none" xmlns="http://www.w3.org/2000/svg">
<g clip-path="url(#clip0)">
<path d="M4.10185 12.2131L14.2434 4.1102L24.3848 12.2141C25.0082 12.6938 25.9329 12.6022 26.439 11.9458C26.9311 11.3079 26.8157 10.3879 26.1708 9.89165L15.1368 1.10112C14.8792 0.902979 14.5695 0.797852 14.2434 0.797852C13.9165 0.797852 13.6082 0.902295 13.35 1.10112L2.31659 9.89072C1.66767 10.389 1.55805 11.3108 2.04765 11.9442C2.54521 12.5935 3.4683 12.7006 4.10185 12.2131Z" fill="white"/>
<path d="M15.7083 2.99512C15.7083 2.59063 15.3803 2.2627 14.9758 2.2627H13.511C13.1065 2.2627 12.7786 2.59063 12.7786 2.99512V3.78521L15.7083 6.12944V2.99512Z" fill="white"/>
<path d="M15.7083 12.5166H12.7786C12.3737 12.5166 12.0462 12.8442 12.0462 13.249V19.9385H10.5813C10.2974 19.9385 10.0384 20.103 9.91828 20.3605C9.79738 20.6173 9.83673 20.9212 10.0184 21.1401L13.6805 25.5347C13.82 25.7013 14.026 25.7979 14.2434 25.7979C14.4609 25.7979 14.6669 25.7013 14.8063 25.5346L18.4684 21.1401C18.6501 20.9212 18.6894 20.6172 18.5686 20.3604C18.4484 20.103 18.1895 19.9385 17.9055 19.9385H16.4407V13.249C16.4407 12.8442 16.1131 12.5166 15.7083 12.5166Z" fill="white"/>
<path d="M18.9352 22.8685H23.0813C23.4858 22.8685 23.8137 22.5405 23.8137 22.136V13.5474C23.708 13.4857 23.5885 13.4501 23.4912 13.3752L14.2434 5.98877L5.01855 13.3559C4.91196 13.438 4.78701 13.4763 4.6731 13.5426V22.136C4.6731 22.5405 5.00103 22.8685 5.40552 22.8685H9.55186L8.89326 22.0781C8.34897 21.4222 8.23164 20.5045 8.59287 19.7371C8.9498 18.9717 9.73154 18.4739 10.5813 18.4739V13.2493C10.5813 12.0377 11.5669 11.0521 12.7786 11.0521H15.7083C16.9199 11.0521 17.9055 12.0377 17.9055 13.2493V18.4739C18.7552 18.4739 19.537 18.9717 19.8961 19.7414C20.2552 20.5045 20.1378 21.4222 19.5957 22.076L18.9352 22.8685Z" fill="white"/>
</g>
<defs>
<clipPath id="clip0">
<rect width="25" height="25" fill="white" transform="translate(0.871582 0.797852)"/>
</clipPath>
</defs>
</svg>
